[Thread-0] 17 mar 2019 14:25:04,006  INFO - Starting BT Logs at Sun Mar 17 14:25:04 BRT 2019
[Thread-0] 17 mar 2019 14:25:04,008  INFO - ###########################################################
[Thread-0] 17 mar 2019 14:25:04,008  INFO - Using Java Agent Version [Server Agent #4.5.7.25056 v4.5.7 GA compatible with 4.4.1.0 r34248b8ae5a623b8fa307bef8be41b9854f0e2b9 pull-requests/1987]
[Thread-0] 17 mar 2019 14:25:04,009  INFO - Running IBM Java Agent [No]
